id	germplasm_name	UUID
1	IR-010000001	1f3592fe0c83
2	IR-010000002	280b5956437d
3	IR-010000003	e9edee738818
4	IR-010000004	77a0581232d4
5	IR-010000005	72b7dab0703d
6	IR-010000006	10fde1a34986
7	IR-010000007	82e060447c46
8	IR-010000008	fe57251de63b
9	IR-010000009	7a31ca21b4fb
10	IR-010000010	da49171bbd39
11	IR-010000011	0ff8bae7c92e