germplasm_name	number_of_plants
1f3592fe0c83	1
280b5956437d	1
e9edee738818	1
77a0581232d4	1
72b7dab0703d	1
10fde1a34986	1
82e060447c46	1
fe57251de63b	1
7a31ca21b4fb	1
da49171bbd39	1
0ff8bae7c92e	1
f896f65bf027	1
66bebc729fd9	1
86b6a381c093	1
67b5e5ae2c40	1
e7a56606496b	1
9de50e15fde5	1
8b561d140a5e	1
fff9ba765fb7	1
8e240e9aa7b0	1
e368035a2069	1
e78e2c7f5678	1
7531c6282b9b	1
1637d8a9c770	1
b7019378d1b8	1
3803c4455908	1
5a4f664f0060	1
300b064f39c1	1
958372126b8a	1
658f31c49cb3	1
25fe3d9fe64f	1
53af4cd887fb	1
4f2c4198ba8b	1
47b2dad0e095	1
f21001589297	1
abc81622a874	1
51f1e8551db9	1
12fa662c6e26	1
748087aac733	1
81edfed15f79	1
aa1193f9a085	1
6e1df70caf64	1
679f083741e1	1
caa6d907ae37	1
9d707ad749a2	1
4bed1ab3d543	1
131b98879716	1
a92f1a625b4e	1
65b79dc85878	1
cdf1a8da49de	1
3049f3d4faaa	1
181774eaa65d	1
db3ec3cae8d9	1
cb36655ff242	1
71738b3b543b	1
30c29f525532	1
83462583b90f	1
810eec70b784	1
fb890ce0d13b	1
95eb7e3409b7	1
8a84684f7c02	1
babbd12c26eb	1
9e5725c94431	1
f51c62f9fba5	1
b598af4f727f	1
d51d792d410b	1
fb7b20c1b64f	1
29f770421317	1
a5c2d854c4e8	1
183ed971377b	1
fc2247021005	1
26f95f89423d	1
c53820629696	1
8938abc58883	1
32482f0e4841	1
e4de617cdd99	1
71d69b5144b6	1
7cb8cd2e2efc	1
64f4f3137c14	1
0568758954a7	1
f92bff6ac342	1
ad1bb022ec1d	1
16e32cd47513	1
c355b9f8363f	1
f8ef72f7b81f	1
3504772f3df9	1
e70c741b868c	1
8d2d7ecd119e	1
8fd2cb748aa1	1
b4f898c5911a	1
30b9842d3626	1
b974c7e30dfb	1
f40aa82d9223	1
4a9a64a275c0	1
799be38e4621	1
eb0fb1a811b2	1
9215d6c5e0b3	1
39baa78a1c38	1
e084d9668508	1
5cbb93f048fa	1
088de5363969	1
37d3bd2547e5	1
3d4e318a7b74	1
3257e75df975	1
74ecd1683cdb	1
f5fd07153ef0	1
1bd39845784d	1
95b7a566006c	1
d99f4b629ee0	1
a264c6d48b17	1
c734aa79ed21	1
ddd88cf0d6d9	1
c72fc84c8585	1
169e48257d67	1
77df8b097fb1	1
90afc56662a1	1
1a73e893f031	1
482ec133584f	1
eda7aa581d83	1
e5e0a6db08a7	1
5588ec78b950	1
c5eaa845f291	1
c01bce822382	1
4f63342a1e13	1
2c433a4fab53	1
c17dc288e2db	1
a6cef233e5d9	1
ac83dc90e003	1
71595d208dff	1
c6fd774eb8bc	1
a927ed534612	1
fae8d1ca79de	1
dc6fd30665c0	1
6069750d465a	1
fca9183b535e	1
bfb0042baced	1
217596cff800	1
e05c50fe87c0	1
445ff29b5503	1
14e612d6b6bb	1
d9e74db63bb0	1
bccf77c582da	1
cec9e08b7070	1
02f949ecac68	1
a1960d6d6c49	1
0e91ec87f404	1
de1fa12d71f9	1
10adbbbf299c	1
2a926e67a73b	1
c0e8a3e377a9	1
5c9f7d7e66ec	1
e6c5c3a932f9	1
e5163bfbec0c	1
f01a1fa18ffc	1
e52fd9e3b5ef	1
58049abec4fd	1
0dfd3857f581	1
8b8bea1b4809	1
e96c28b6d788	1
679348d10176	1
57ebc95d3f04	1
8b306e834e51	1
dca96e010414	1
08282189dd60	1
d716bfd082b4	1
2de7925442ed	1
3de5c6531b15	1
d762156ecb4e	1
6a8b5ca157e2	1
529700f966ee	1
1c471dc6915f	1
e905b700e264	1
01131f8602b2	1
0a50207ce5c6	1
c2c78b935926	1
d6865547841a	1
5b7c31145772	1
5b1142b19775	1
639205f5e5d1	1
69ab2088f419	1
5999ebb6a60f	1
5e398e172953	1
0548a27675bc	1
9f2af69f817b	1
cd172a73ae54	1
ee5bc0cd884a	1
b341c064068f	1
62dec21d8f1c	1
6db722db87d4	1
9dcb9b7a2f1d	1
9ed373bc931f	1
ed31e28eb2ec	1
3cd027555f60	1
dfbe8ba18aed	1
355ee84e1131	1
f7d8795ef9fe	1
dee1383a6103	1
aaea3c5a22ab	1
38cda446a7b3	1
3ed80eed075c	1
3ae81669e38e	1
3b2a4b2a9de4	1
d4f3f4bbcaa8	1
49b94212bece	1
0c9618a84d9b	1
cc83590d25dd	1
6e0c8fc9eaf8	1
b42a60ac522c	1
6a442dfa3d78	1
e1e012d045dd	1
7d17eb1abfa9	1
fc357ee9f1a0	1
8498d780d066	1
d705b92f1213	1
db86ae1bc5e8	1
ba26ebf0d872	1
c9448bf86b99	1
85c7fa98debe	1
971ac559593e	1
4f6ebb0b16f9	1
b71fe91625b9	1
bf00f838e748	1
2179cec46561	1
5366fc1c04bc	1
b2bd1c945665	1
5bb6d3566e68	1
9354e0287220	1
1056dede7ba5	1
8962f0e3e9a0	1
7052b9b21ad4	1
3ecebc2b31f4	1
0cbfdcdf1fea	1
be9e2a65b41c	1
c02c2db94e93	1
6a8393770f34	1
f0166a376d7f	1
0988290e36ae	1
87c776e2081e	1
c0df840f7f6c	1
378c4d08dfa2	1
f8c04da8829d	1
55c885e1b6ee	1
8c71888c1f0c	1
b664e75fdd1a	1
c794bc8d24f8	1
58cfa6881103	1
a4ec1b96eccb	1
5a07d538a7e7	1
b00e3340336e	1
3ef19c0dd7de	1
266d7742f286	1
a428ca90e4c5	1
5c84bb1a0d7f	1
8f12ddd3644c	1
60e640182988	1
e8d77617b5ed	1
8b241d27d6d9	1
3c5e5753960a	1
32b8bdd0e1b0	1
dd21f068dfb9	1
5d56aa00b889	1
b90a978957d5	1
0cdb8cbf254e	1
58f6d765cbc2	1
b2286348fc39	1
5f979356f946	1
09f90f9e5e37	1
fca42dc70dd7	1
50f995d0494b	1
42bd6b93355c	1
a2da7591d832	1
39ff08f3dc34	1
6b1dbf4a5a45	1
2b3b3fb98a28	1
95a326ae4196	1
2a28fc33b27f	1
fd5e4b73accc	1
e60d7545484a	1
08a15b6bc11a	1
9b2afc33855d	1
0f2d9a5bb603	1
580a95c34398	1
c65c6a73cbef	1
4c6db36c810c	1
37045d102b02	1
f4544ad4d9da	1
2250ea792261	1
1423567af9a3	1
69430f9c7e32	1
9791093943cc	1
d2dd3e11f9e0	1
f1b1d3e84fb6	1
bc6c2b398694	1
c0eec9224aeb	1
c3a672720434	1
4961d8076784	1
73236a1666e2	1
cc929cfba1a4	1
f3d06b017fc1	1
a40697b6d59a	1
7139be998123	1
b6cb280c8820	1
c91fa7bfbeaf	1
cfb49616fab8	1
036f73fe9e9a	1
cb50d875f47e	1
7c24909f4157	1
366235327be5	1
1532b6ab522a	1
7e4f7ab23906	1
d00144dfeaae	1
5b9e139fd442	1
aaf57312d549	1
51739ce230f0	1
1768dbaf8290	1
69e6b5cb3c79	1
baf3ddbe399a	1
6ece3c60f107	1
c0cb95f6d37e	1
a910aee2ed42	1
ea65a8def8ef	1
744cc552d34c	1
20b30b2ccfee	1
724b077f17a8	1
34dca0b2deae	1
f9283bea0d4a	1
f9743f1c32eb	1
94aca24b0f22	1
9b37153d3415	1
bc6a3505996a	1
b8c9871bd5cf	1
8a3146d68c5f	1
c982aa34c291	1
9795d4d481aa	1
ce08d71e36aa	1
0df14cc8dad8	1
485145c9e509	1
6b1d373fcc7c	1
c97955295c0a	1
951bffe86de4	1
e492962afc5c	1
c4afcfc77ce3	1
9476bfee87d4	1
bbc19167297b	1
cfb933a6d4cf	1
eaac4aef1697	1
5237d8f349b6	1
2df774cc4e17	1
4d7649748530	1
5156f3e719ec	1
bd0a6a0b377e	1
aea613a188c2	1
34c0900158b0	1
2e78c649ae82	1
c527b7c975c4	1
cfc869e0ef77	1
865052e47d13	1
f5213bddfe54	1
abd185e7f7c4	1
6e9d7e52e7e4	1
67dc297ae653	1
ab181d5d5ba2	1
1e14b1b59844	1
8838c7fe082d	1
61262733449e	1
6003da06cd7e	1
2b1c639bc010	1
fc8c62b86d7d	1
1782b5cbdf80	1
e75722415ec7	1
962634205d46	1
0687d7df88c1	1
bbaa91027ac1	1
f430cc991528	1
fe3d95598dfd	1
c5e4b86dcf8a	1
598527a4816d	1
626cbd0f01d7	1
d5c839a715a5	1
101eb593c925	1
9972f967ad27	1
430ca795f565	1
908127b165f9	1
48fdd8952ff5	1
8826e48b9a55	1
341dd9b2b1c9	1
2600d46a13c9	1
108ea6921685	1
42abf74f1812	1
05cb87c6182d	1
925f9ec0f7ee	1
3d2d1e8e0bda	1
e2a6523790c5	1
e16673a5ca79	1
149a95f9cfe3	1
1941b468c45d	1
70551b18b3ce	1
8a27e809480d	1
80eb3ca5aa7b	1
5971c83cb8e8	1
30c1fcc3c6d1	1
ab10310681ff	1
c932eec0aad7	1
a11c3fe87382	1
adffb2cc5fac	1
4758d5e80fd2	1
b0a0d05aeb0a	1
d75a1370a878	1
b8930f8263b1	1
1580db14e55e	1
6a315307995d	1
157c08b5bd7e	1
ecbc73ebfa1c	1
fb506e17d927	1
b2501b984354	1
32e73f43db8c	1
d242d08a34d9	1
c9eaafeacc1e	1
3268397c6097	1
f986a3302fcf	1
be657d14a623	1
4d87c2c3f587	1
8b986546838a	1
99f8540b1fa8	1
944c802f80a9	1
0406be636943	1
cd32f1b0bdd6	1
42db29f0de3f	1
b7246070eb3f	1
6db9ebeba35b	1
48e73fba9fe5	1
32a2e57f8008	1
11c79579d3f1	1
f57196acc5a1	1
2f9858f9450a	1
58e0aca0f1e4	1
f840beef66ed	1
06f5101f8b27	1
5c5f81af5acd	1
93c9ab7fd065	1
c32fb2281f94	1
242bdab6337d	1
4903e8a2fdc8	1
a462d253a385	1
c8d0171014b2	1
4e631ea11f61	1
3b328e36a820	1
1a42da7d46bb	1
4d9239513eec	1
bfaea7bf9983	1
0a9cb95abbed	1
e7148190fb51	1
8e4c8a1808ef	1
e00a77b7a73c	1
ed91e780e6f5	1
7d775297fc18	1
be898792cb92	1
bcab185af94c	1
0775d9302845	1
0e0e647653ff	1
c78b4869915c	1
1474de1b748c	1
8d6b936c1850	1
44b3229a0ad4	1
13165fa0f159	1
3a47bedbe4de	1
2b63b057e639	1
0c831b62026b	1
830b475533dc	1
9b8b957c77f9	1
3b2e0aa581b0	1
164a61a54db5	1
307573d5015d	1
b11eacb2f8ec	1
99a3f9753aeb	1
d801c95e4144	1
665aedc019d8	1
6106f66f4342	1
5e1c722d2289	1
4166839e8542	1
fedc7312b54b	1
7e35f517fec1	1
d502b3f1d63d	1
4451dae5e16d	1
8cf910b8eabd	1
cd0de65338c7	1
d635702bcf63	1
6483a292fe30	1
38d8a3e9f8eb	1
38b7657abb58	1
7601a3850de1	1
6511c172600c	1
6966a3095079	1
5893f5ca60b7	1
eafdddcf29ce	1
731bfe5b017b	1
ad47707f5233	1
7b183824b581	1
0f193f3f55cc	1
384026cafe68	1
a014b60a1c11	1
fef085f2dcef	1
d07e25edbf20	1
cfc6619737ad	1
076923e1b049	1
012aa958a6eb	1
f54118b7624c	1
ef4489382e3c	1
2eafc25493fc	1
52347ddd2c96	1
a1e4cf821b4e	1
456c4f6fcc97	1
a7a7078b138c	1
244b6a5b8c07	1
a1fb2d622b6f	1
71fad5b2db03	1
3e2eceea95ac	1
06b01b69dd35	1
f7ddff6c8e05	1
ab17758c57fa	1
284302ffa3ce	1
097cdf6e0226	1
aaceecd57f93	1
04533def1267	1
4378dd3def28	1
dcdc43c90683	1
7cd6f1ceb8fb	1
d6338532cdfe	1
09f569e9e878	1
775714872b21	1
b22565721fae	1
100a424e41e7	1
fb7afed8b29e	1
7a8c2f9b3547	1
bb4af196f368	1
ac9b90bd1388	1
c771eb326a13	1
7a22dc21f2d3	1
48fe4307f136	1
06d70bfdfe6c	1
77baddf6cda3	1
7c7544399f3c	1
153d50e65813	1
86566f4e3ddf	1
b1cf51958170	1
665d155596a9	1
8fd2f0463fc7	1
ffb2cdf1b516	1
50dfda5a1287	1
02f560bb2f99	1
4f26413a7adc	1
59f9514ed466	1
11dd7948f93c	1
d8f87da64345	1
8f73268a9e1d	1
7161aeae408a	1
c3a38b4d6b1d	1
1c927427dd8f	1
d3ece3ae02eb	1
7476e6195e99	1
8f6d9653d78f	1
752563ab1740	1
dd34c85f3836	1
d4d954dc2ec7	1
b0ae2eda6f75	1
c02269a77207	1
e469584e7355	1
b00eccf4996e	1
02fa0f763101	1
f950827e1da3	1
38ae87733f09	1
c9e68e82c5a0	1
b0cd922e1997	1
c09b7d396036	1
bc4d2e26632e	1
a0e3948c341f	1
5b7a529d4d76	1
82496391518b	1
e402b6dd6c5e	1
be077f5f8661	1
35777886464e	1
507328447fd6	1
b105e0a60588	1
1954e959ad20	1
9243c6100da3	1
a4e8ddee71e1	1
bb57cf34b539	1
46c5e41603a3	1
971caddcb6ae	1
9d306c974b2c	1
cebd7c2e5656	1
859770337d59	1
9566f793d01a	1
473ca15d5372	1
7efadf248844	1
a25ad4d4ae68	1
ed5ab32e9dc6	1
e5f16487ae22	1
a2b86dc96ef8	1
8ad60b7f9f25	1
083a0077199d	1
2a1347ba0f37	1
1a1bd42d24e0	1
fd663b44389c	1
b88cde637ca3	1
6f63803500b8	1
ff4ad3ab75bd	1
d21f447a135a	1
e0c4622481cd	1
abd4a8c319cd	1
9d2a83d07e24	1
d661fb3125c5	1
60977ca2cac3	1
a7401c3da2d0	1
b4d55af8efdd	1
1935a435ca20	1
b403298b020d	1
eca7b876c150	1
210a6e690645	1
a7dbefe7c671	1
804d9fab0724	1
74f9f5d17fe3	1
9372d95943a3	1
267567fb2ed8	1
416ba3604b16	1
347800057d21	1
064a7704f8e7	1
300fc55550c4	1
1a6732d105f5	1
c10cf88d3df6	1
6902d095ac04	1
8afdc28da611	1
66a9705a93ea	1
d758dbad1d03	1
1d618212b64f	1
95f28c196254	1
06100ba10e8e	1
9bce4de19e82	1
6f5934833f40	1
8d3cd7aeed97	1
3b8ddc9e2779	1
a9a4655d5001	1
63be9c54c881	1
090d6ee68678	1
5acf7c84739c	1
62c5abc15b46	1
cf344693bc65	1
7d936de70682	1
ce80d6730c1d	1
68ef8d620012	1
fba87269be14	1
84f946bc56e3	1
d269f74e0c71	1
f9c3f7ef471b	1
619fe412410f	1
579bd77458e0	1
99fd6c0b799b	1
66da75e45ecd	1
f0a8041d43c9	1
a6f6e2d6e4a1	1
3f1c91d5fb9b	1
fd954bdd5a2e	1
ad2567446f3e	1
c8b3082ce245	1
303bb4437b38	1
3565dbb852a8	1
3c581ef752ff	1
2d303cb0d5e7	1
9aab8af36941	1
e2bf51daab1a	1
0041caad53e4	1
8e42034650ba	1
b4411f1ca215	1
7b0d3d67235f	1
dbd0881237fa	1
10e6f820c4a9	1
de7214fbb5eb	1
26650a19002e	1
726c3be497c9	1
6dc204ca0608	1
88039dfa41b9	1
fdf2e1248303	1
9fd93678c502	1
fb803a3a8c4f	1
2bf88a59dcca	1
e1f4c65872b2	1
2d1c1c8ea0f9	1
907df3337d8f	1
38142f6bb256	1
64771f2042a6	1
a6e91709e758	1
63214ed216a3	1
ff424382bb24	1
f61b79c92edc	1
38e7c1cbcd62	1
dc793ceeda19	1
588283b1ed14	1
7c89360defd5	1
99e428824ec9	1
7dc7660effbd	1
8cd757cf8dde	1
e189f72b21a7	1
e1b634e694aa	1
0315083f2e5c	1
79afcb920bff	1
43f6951e0010	1
6199d6f75772	1
c32b0be7ffe2	1
9962476fcb6f	1
b8910d7c548b	1
800e4a6f6143	1
ecb25a0f6d77	1
ea4dba126368	1
46bdd707d3da	1
fbf74f8d0ae8	1
9c3b72889e53	1
4de5c877719a	1
21daefc90351	1
ed12fa19cf79	1
5a35267da260	1
ebea823520eb	1
4347a1674b25	1
955711290e7c	1
98ee2980f484	1
46ca9968ef6a	1
6fc60cc2f063	1
6c08ed2f447a	1
40001e8e1819	1
9e7cf5d28673	1
759e3dd4a7fe	1
834de3e5b3b7	1
6417638398f2	1
19c195966ca0	1
17b44c94eb47	1
ed85061ed1dd	1
62ce779e81df	1
df97166aa82a	1
cd2ac1b7a4fb	1
515612eb43ac	1
95816efd5b77	1
689960fd712c	1
ddd10ab2dd67	1
6476d1d0a13f	1
b5edff0c0b84	1
87ff6ffa30f2	1
42ff4d4159ef	1
3e2c70a39b0f	1
31a87e001218	1
5adc7fffce71	1
5183859bc4ea	1
03b84236ef63	1
0bb676d8427c	1
e63963342fc2	1
f01ab1cc48e4	1
92f9bce1eb9c	1
4d1a33a39e03	1
c74333a02a78	1
588ef9e20751	1
096dbdbcbfdc	1
c367328e60e5	1
97e3d20dc06c	1
136eb00b4420	1
c98bcbff57d0	1
de888f861505	1
61cb8d748843	1
6e2104544103	1
6d8d852b92c2	1
f1b25fe74896	1
b41f9dd4d7f9	1
eb8cb3426091	1
7d52229e3c67	1
972d1eff3591	1
40796f5306ca	1
da7073eec282	1
c860ee9acefe	1
0d68ad6eea9c	1
cb265c7c2a64	1
38b44fae451b	1
a18936ea8eb7	1
c81f5cee8a23	1
ebe40a53d579	1
202b63b2de7d	1
e9878c62cb63	1
0ff9476e375d	1
9c76a2f46c68	1
feedd5588fd3	1
d33297b41221	1
ea1bca11b1a8	1
98799f56522c	1
611094bf3f88	1
25c5efefc9ea	1
14179ffb142e	1
63d12affdf33	1
a6db9cc30c34	1
75e76d02a692	1
0facd2749e87	1
986954b46f61	1
2bdd596e6971	1
15231d62f2c3	1
c71948b317d0	1
0835805857db	1
33bf62491adf	1
8ab75a7995d7	1
4b76cd5a4443	1
3ead49d89737	1
89655116327d	1
9f29d9d627fa	1
b6302619f71c	1
9b3feb628dea	1
c100f7dbd01e	1
5033e13f9007	1
17264889ebd3	1
7ff8700e4034	1
ef8f205efb29	1
524df7cb04e2	1
a364f583a025	1
37f395c38090	1
81b151f1824c	1
e837a98fbc71	1
f484cd543eef	1
2a418e44c81f	1
e7580b549aaf	1
e81b5dc1b0ff	1
2c16b43be364	1
3b3b98a64750	1
2cca539635ef	1
bbedc427efeb	1
c047bcb6e203	1
9b05c81bba23	1
0447ff47b293	1
eda19eabbfa5	1
641f687bc77b	1
d7871374e42c	1
a1717a641b5f	1
7c13d76e5d43	1
7dcca2b23023	1
b245460eb36b	1
884a02df627d	1
0a60452a004e	1
9aec3426081c	1
4e819962eef4	1
786ddea94cf4	1
d570980b8a34	1
eaf4a926c0f0	1
7fcb54c08d5e	1
df1880857f70	1
80f427c1c08f	1
9e8f9ccd6127	1
c7497fe1a6f8	1
061664a70a7a	1
cdc927b61aa3	1
2d81c7b30726	1
82beb201e213	1
9d3d1f0969ec	1
b038949113c6	1
bf50f754f8e0	1
49bc0260f13d	1
780bc53262eb	1
0bb264e50bb3	1
939f404922d3	1
f452f7671cb8	1
1b4b3a7d168b	1
b1ec486dce5e	1
184191fb0548	1
c5992c7346e0	1
a4fa46d91653	1
3d5de83fc56d	1
cf817319bdf9	1
f1c1ae3dc8d5	1
18e6cc77f2ef	1
55789934def2	1
4e4fd9349bf7	1
4eba64b70fd8	1
4115442873cb	1
2169e49c23bf	1
069f86c1ceab	1
f725714893d6	1
726c3da1a311	1
e31b26c1106e	1
528b02a2d14b	1
e7e4aff49e88	1
54b8b4bc5658	1
a2bfc94578cc	1
79a71e793e24	1
72bad26931b7	1
10a07d46d469	1
1478dbae9589	1
7576bb60ac12	1
6425b4d85338	1
244ca5fada30	1
4e2a95067503	1
3c591b44eaa3	1
06c995c649fd	1
0f0bf2ef00ec	1
8586f0ce4b57	1
4bfea121847a	1
9ad243d779a7	1
74cede053b12	1
991da6bccf9a	1
90b1fbd5acdd	1
162f7a3a8960	1
bb3833c5aa30	1
69802607d0c3	1
4517fdfe7e2f	1
6a2c2c5b5972	1
a55d7980bf44	1
500d1ac0084a	1
ba721e2a57a1	1
66d12394c020	1
f38f2c3b4426	1
dbb8ec2b8780	1
0702d4a10153	1
52b3b9282091	1
8a73f2c996e0	1
7f417951b602	1
34aaa58a65c0	1
c04ffaacceb0	1
88a49f317272	1
b2bfd0d73f80	1
e097eefcabd8	1
59b1e5b836fc	1
babb1022cdee	1
2b836a29483d	1
2bf049ad3122	1
3a12edb4b0f2	1
64f7c0639903	1
94ffcc3113a7	1
9d7475d7a525	1
9a5fbb839fc5	1
fcdcabf7a4a0	1
533ec8e6fe6e	1
b0e161230514	1
d089e9fa9743	1
43774f63198b	1
c6ac67b9c868	1
2d337e220e8f	1
18f3c48773d8	1
798bad8dfa9a	1
b2cb62d309a2	1
b3bdd6b12336	1
0fb082dcd074	1
7bdbf46519bb	1
0acc0d7df60b	1
a512c6326a93	1
a942816b9e8e	1
c50c141092cd	1
11aaa1a10758	1
d9a508f8dae8	1
d05ae5d038c2	1
24f076562699	1
8eca2dd9e619	1
886c272bd705	1
4bdf800c1658	1
c5a717763939	1
189799500c8a	1
889824fdf988	1
efeb534792ef	1
f4b848f166cc	1
c60d6b6e29d2	1
0e0fd4d40307	1
7d1bcb52ca34	1
2425f70e4cdd	1
a33dd9ac7981	1
609ca6ea5d66	1
908376eeae2a	1
f84d3776adfc	1
fbd76db982d6	1
51c0b9d37610	1
518f4c99a3c9	1
594331bfc769	1
e5897318451e	1
a71f701129c5	1
4437eb626081	1
83d1ac05819e	1
36b9ffcc419c	1
6c17e03d3a54	1
26ad519773e8	1
5c71e65f7a7b	1
26acd42b1cff	1
c9eb349e0a70	1
942022b176a0	1
e2b2f19ded1d	1
8df45078648d	1
fbb929cdc67d	1
39b031278d89	1
53213eba03a1	1
5651fa54c619	1
2bbf711ff7b2	1
1413517741b5	1
4a2f4e388169	1
5f78f849a5b6	1
4495a4b3d545	1
ab6460aded60	1
beeb05710ede	1
db2e00ecf1a3	1
b3f14d9a6563	1
801b90a29ba6	1
038f1abec0c3	1
1eb2e7c5df5d	1
6e0544e37353	1
bb42affd2725	1
1b9d31494809	1
4f92c923adc5	1
2c50fdb2e5d0	1
f8c6e53ea578	1
255c04b803dd	1
5c7446db53ef	1
de19729b56a9	1
6f38b15ac5df	1
fbdbb940c9d2	1
d6cfa7e78dd5	1
f98537a63093	1
5bf674e42c85	1
157ff7290ca8	1
f15ce0e1f502	1
4a03d9a2a95b	1
2fc96d36d823	1
065ab95d026d	1
9a47afaf8829	1
6a9fda4100db	1
70662d7f44cc	1
ca16d0800634	1
419905dba13c	1
60c2dd0c3d75	1
c9cfe9fe6b23	1
9795be548e05	1
0dfd9d27744f	1
474eac111df4	1
de8de7accae3	1
791fecf3ed9f	1
02339c8e0938	1
c11d67cf93df	1
9aac1f752986	1
4170ca32fbdb	1
bb3e032f23f1	1
acdac20f8a02	1
08098436f28a	1
ea96eb28c5e0	1
0d72148ba588	1
b6662128b84f	1
2dbbad763970	1
2114360c3d1a	1
eda3fefac3e7	1
81be15a36e73	1
d1ad74d48d8b	1
6cad971532dd	1
643bac7acfad	1
0afa49c6b26a	1
686e516f8aff	1
322ce37dbea8	1
a032cf3f6e6d	1
82ea9cf98857	1
8da15b310647	1
e6317182a9f6	1
d43987f13df1	1
0f8a8702e20e	1
350f8bee8531	1
e807da49ff81	1
ce91d0667650	1
8416beeea6fc	1
95bd03e70827	1
c33ca307f835	1
f2e91242c90c	1
3b2e19a84ea3	1
5b7c837a7584	1
3a762c3cdc2d	1
fddaf286e765	1
9c79a4060e0d	1
cd047d613b41	1
95a4fc758926	1
586428239a5f	1
42ee65242ec3	1
9bbbb2eb9ebf	1
f160d920cd79	1
abaf2097e00a	1
678212ec6170	1
3a6c7d56b24c	1
421d274c04bb	1
e6a46f0ef59d	1
524e5ca463e1	1
b231932083b2	1
320abc60f46e	1
21720416080e	1
f640e0897f93	1
1cf1a2f641a2	1
767ddcc1e5a8	1
e721cee85c57	1
bc1ebd299c20	1
aaaa151e9747	1
eb3ccca4ce94	1
7c77be97a1d3	1
e150a148523e	1
88c2d847c4ba	1
acb9793e5e50	1
b2de94d83504	1
46e4022ce861	1
5321d482e8bb	1
c0872fb0b33c	1
bedc954aa55e	1
5bd3a6950310	1
09446c39002e	1
b61adb5eedee	1
5d532195ccee	1
83def7bade65	1
ad5b78aa5f72	1
b6167bb43fa3	1
a71697bd5deb	1
d824fd780c35	1
7c9441613a3d	1
dc330c700688	1
1517808c652f	1
ab535514900b	1
0ca536eef38e	1
4ab0ec430673	1
f8b726e607c1	1
42b96910c3d1	1
7df2ae646787	1
903b1e054ab6	1
33a18536fc23	1
4794af56797d	1
031d1875cb06	1
4a46c9957654	1
54881ebca823	1
a95304f32ac4	1
b6538335d4ad	1
979670b2c0bd	1
b2ef8fdd2f77	1
8072a31b160f	1
56be32cb85db	1
3948b425794d	1
fd1d4463cbca	1
011fe175cfb0	1
310e49657586	1
387841ec62b2	1
5f4e76bb6522	1
07ee66e7f856	1
f5967daaa06e	1
8a6d72a72e05	1
ac5bdb3f159d	1
c4d0f1a44531	1
f28a5c2a2175	1
913594b747b2	1
49c707a9cd19	1
984b1d66fb0b	1
603affaf3d6c	1
be9d01171e56	1
8cf232400ed2	1
030ff9804c01	1
795dc5c454f1	1
c194348ad5f7	1
53dfd192e1ee	1
537380ad2510	1
4efd280343f0	1
740a77f3b64d	1
18c69a651793	1
c7eb23ad59e2	1
f6087f95be57	1
af285765664d	1
7fd6a718a7b7	1
eb774e1d5d63	1
7c2ac1303f53	1
d400a4428df7	1
fe23dbea39c8	1
85a5e82d1e1b	1
665cfd3051ab	1
f9bdadec04f8	1
100ce2129f0e	1
7f5356154f3c	1
fc13d1e3a808	1
ea1a1180335d	1
af30a465cc1b	1
0909bfc0032c	1
9a8b3e4778da	1
a8219a712626	1
eef6476dcbbe	1
93c3ea7a8313	1
6df73c5d142d	1
3987e0ad517f	1
27e1e619d8c0	1
4fd9e0be3c1d	1
2c9cb8759269	1
6dd0b4defb49	1
5aabc52cfa40	1
5876f2e86b58	1
3fbe1e0159ff	1
b85ea4cbfd61	1
29c4f2bd30f2	1
b755ca5528b7	1
d8e78b9a8ff6	1
f901ca1854f3	1
65c10999d466	1
0b36f3cc532f	1
92cab5f87840	1
948a066dc641	1
0aa7754627e5	1
2a591c0763a1	1
64e1fe689565	1
1992a449340c	1
ab3220c066aa	1
23af1f2c51a8	1
b853c3938482	1
1643e187bae1	1
04f620a1bbd2	1
e8439b3da524	1
afa08f9a672e	1
7b0114a03f9f	1
9707a5166ca8	1
e39ca69ba6e5	1
3e732f116404	1
b292515e3e27	1
09977349615d	1
dc31d1493a15	1
359507f1d029	1
dfaa2d63cf6b	1
6e48af8bb598	1
407a4ceedcbd	1
9caa116c274c	1
39b4033958c8	1
f143da067858	1
eb3439822671	1
c42d27bc1e04	1
65da0010a71e	1
62fe290a93fe	1
54127ed6cf8d	1
9a301f963cf4	1
073197b7ae62	1
d17f44cc0622	1
2698dca67ecc	1
8362699b8846	1
5e69084712e6	1
bdafe6acd257	1
6b7e11ed3e09	1
4caa1a87cd8f	1
3556e29fef7b	1
7ab0dc1a1818	1
cb4649b0342f	1
6b10d4466d67	1
cd1f3f41d996	1
34f7a3988d60	1
c06c050de878	1
ecc7307080ad	1
f7f7aac25247	1
8a654f1dffb6	1
d31c5271a5eb	1
e771cc570c20	1
7d7b10ea8773	1
ecdedc158018	1
1f97733fed6f	1
6ccbcaca37be	1
038e1595a6c4	1
fac5e96c4e66	1
81bbdc034d24	1
be5c2dffcaf3	1
3bf1e27c1ecd	1
2532313efe4a	1
b107da4d9177	1
c55bd65a9f47	1
d93dd3c2b58c	1
4f843977f405	1
e6deebec70d4	1
cae1603ec5ba	1
978d750a8c8a	1
2255bdfa9670	1
886d816f84a5	1
d3615ebd022e	1
68d194ba441a	1
4a9494c371c9	1
724ff3014866	1
9873713aab82	1
6d3ee638437c	1
18e4ce46d9aa	1
a0c27dc8bca2	1
dc99165776f2	1
177612d5e6ad	1
194316f4ca16	1
a309c2796661	1
3ca7be73c917	1
fde9f24cb8ad	1
64f52d7f9ece	1
bd7ed75859a7	1
bcc63faf07c8	1
f983303923e4	1
bbc40c6d5a58	1
f054cef75023	1
fd940bcc839b	1
18bebc58a3cd	1
e26d394af230	1
08b70016aba1	1
b884b129ecf5	1
15269c8e385b	1
b9252a933799	1
301a8f42a52d	1
402d43119169	1
ec58c79959a3	1
1d5a5cb81367	1
8ffce97fb94b	1
bc64240906b2	1
669734c86ef5	1
043c4573c61c	1
4adfe0f751e3	1
9433c54672c4	1
3a645d7cfd3f	1
118dac40ff1f	1
abca3f3fc9a5	1
a7cd087a5eef	1
87f3fa0595fd	1
2f7f0484b217	1
36625d408743	1
3706b2de7961	1
e1f5415a6636	1
003577faf09c	1
8ff4cfa9e465	1
ddff1b6f1884	1
2905eaa58f15	1
eb98a7056548	1
39d0a81c2646	1
dbcfec79662d	1
9cf9328b433c	1
edf2f32f4055	1
44308f64db4f	1
b9adaf3532de	1
2a2e5a0ef58f	1
f6193ae39632	1
88699d51bd96	1
7f95b07a215c	1
b6f5a408ef0d	1
0ce09bc66f19	1
eec60bf1c96b	1
620bfc5e5b16	1
2766402edce6	1
9c5111f589a4	1
2d40d2070327	1
abd31cb25860	1
353acaf2d699	1
0d52a433e2f3	1
5c30ba3605e4	1
2d97ec4f6599	1
7ba371d531cf	1
7a6691e70908	1
7df14f938c76	1
4d9c2ee59ec7	1
c40dab8f49c7	1
31a4bf3a65a4	1
9c9b48c593b8	1
600a25edce52	1
2395b7aaec14	1
ca750a07b011	1
863bf22e780f	1
aa769853ab5e	1
42ee0c6301ab	1
0ab8331df85c	1
3c357246dd72	1
5afdf75260bd	1
7037c485f2d9	1
091c525650d0	1
ce21dace5648	1
edeadcfbd242	1
f27ca6b0df20	1
d956e1d6ce21	1
940177d620a0	1
ed5d9b627190	1
6346f4ca116d	1
1203f856277b	1
3eaa27aff1db	1
c7e86099f53d	1
d5b9e3b343e3	1
6dab96a1f935	1
9b1b49661630	1
17ea69819e66	1
7667263b0f71	1
4cb514faa10a	1
b1d60646b738	1
75c85f05fb9f	1
ca3f6c4140dd	1
35713a523b14	1
9181784e9beb	1
e36d70959c6b	1
599485b97fab	1
b07cc8c2a9b9	1
37a9b2ba76b5	1
cfba1c5e2437	1
5b27d6305b1d	1
5ece765cfd1b	1
f25ab96d09d2	1
e43967107ef0	1
2f6fb530b429	1
a7507ce08b79	1
0360982ff9cc	1
e835535a09e2	1
fd6f96cd419f	1
bf2b9169777f	1
a335b641b12f	1
6710aa7c7479	1
32d37054c9c8	1
5672a5375583	1
455d0faf14eb	1
621b499b8d61	1
8fd355457e37	1
d53fe7d7ec13	1
bb14cc06a8d8	1
5ca65354576f	1
e95d136471a4	1
e3bc14fd57a7	1
1cd524138a63	1
930ed8a423ea	1
2b81f5c8527d	1
fa6898642590	1
5b2f3b196cce	1
a0d3e26777ba	1
33968a0f2068	1
36c79ff8c546	1
4225b0507000	1
3d70d9edef14	1
8a081c8be879	1
1f1778e12d5f	1
ad802cf90190	1
2f14f8fb3b4a	1
26374c09b8ed	1
9e08b510fcb5	1
7af5af27f9ba	1
f2d4d5027b0d	1
ba9d53e2228b	1
7066e1e2d827	1
2575fe2fe964	1
0db4c0ed39f8	1
2d1c50d4b430	1
097e17b79cc5	1
4978196ae423	1
4b2efbcf2aa3	1
17fc1c6129af	1
f23bf8ebf9d1	1
4c48d0ef5c75	1
c3efab44105f	1
036b279317a3	1
0fa3a2f51c42	1
169b6cf95c2d	1
8de46f8fcbc7	1
800dd1432f7a	1
ea9f35ce0390	1
eb6ef2698fcd	1
a6ba9daa13c3	1
592334473caa	1
9c8851792dfd	1
6ca0823df232	1
5c15f2bf1f07	1
2510c038b8da	1
efeee7275a02	1
ec1b8e56644b	1
2598d4fc2433	1
3b4cf77fe338	1
99d8405f2742	1
84063d1802eb	1
0ab430f1c54d	1
4bc9cab76ab5	1
81b6a2e7efb6	1
c2e849e0e1e7	1
0cd9746d7204	1
58789ca093d0	1
9125d8681bf0	1
c5f33b957f55	1
6509b87eb200	1
00b669214f58	1
1dcc5b0ee702	1
8beb6a12eaf3	1
3d9feecdcc20	1
7219a6d64596	1
a0aa1d3ceca1	1
a52bf891bb77	1
dfffe1d004f8	1
a3ed20bd1abc	1
e8d1f6ef6a64	1
3ea34e76b7e3	1
bc6abd10d6b6	1
26d7d5c84fd3	1
ef1a24f4250d	1
5240f201eae4	1
e2503de2f8db	1
91c06b2e002c	1
288613d4c054	1
131ec009637a	1
0b48ef8bb7b2	1
51c6d3bc883e	1
c2d9a0d10161	1
8f2d549d0b17	1
5db2693a786e	1
d6b005099b28	1
729fbb6e3b35	1
eef3e8510dbc	1
a2e9764019cb	1
b977fc05aa82	1
e1fc4132b747	1
3149643b20b5	1
4159f2ca7195	1
e26994f06fec	1
06f90f55f563	1
9bbfac1f7739	1
bd367265e651	1
dc7b9fa3ea48	1
4ffe8e9c58c1	1
8643633afd27	1
26b00d76e7e5	1
17cef1b1bf38	1
4d43287ed0ab	1
2dfc198a9291	1
1e3b0cdcebf4	1
671cbe986d5d	1
07536f5978de	1
b865f8197b6c	1
95b5a3b03d29	1
069a0713f88b	1
c1edd55de85a	1
2af0f9db1b9c	1
b7dfc1f52a11	1
14338e62b758	1
ad96a41d79fb	1
406e2333f8e8	1
db6409ec5504	1
7bfa877855ec	1
e935aba2491b	1
80c5fca8dc38	1
5159fef87117	1
7cb2d8dc0aba	1
5bd800c3c392	1
8cb76d77f37f	1
31243399ede4	1
4e83c72d696a	1
3b254d34db87	1
326b0f3183aa	1
969980336f89	1
50c658741da8	1
613ee2522300	1
38188137e4c4	1
8ae0c05cdc44	1
dccf7b610812	1
120ee81ee85a	1
f3db27ce4ca6	1
7b6032569a04	1
182cf33ee73e	1
98e8a5628e79	1
2f2602e432c0	1
7291cf92bc16	1
735470d336b0	1
f7a9c309c1e9	1
b4aba0d4a8c6	1
a924fb297184	1
7fcf06c2d84a	1
38768a9fe9cc	1
8f8488f821d1	1
3d2968a902cd	1
8b104c26cdec	1
053cf386d66b	1
a2e8c946ab63	1
b128a7350228	1
238ff4389ef3	1
ca75485b7b68	1
aa917480167e	1
725d5b9050f6	1
67f649c3b894	1
ec792a691f8b	1
25983d5e768a	1
121c7d7e3c35	1
1ad053db553a	1
02cddfe31661	1
6976c5ed21fc	1
c226766f321c	1
45083cc47d28	1
25c23e134640	1
380314b0a73f	1
b51f73e78df0	1
ed85c3e5595f	1
a2f9c3ed155d	1
963fd145ba6e	1
90beafb898d2	1
3d68fda808b2	1
15a7d558f704	1
44205460aaea	1
2ececebb85a5	1
21de778f800b	1
69eb05d109f3	1
5d7ea0e5ebd6	1
cbeb1fe0a3a3	1
414cddcac1a2	1
225570f33ad4	1
a91f98344679	1
a26bd7eaebc4	1
0aa4bc30cb4b	1
ece6e1ed9268	1
cb95483d39f6	1
bb55f5cdec50	1
c63b0d21899a	1
8f89bc27d9ea	1
9bcf39b95752	1
8fd25b958c77	1
492d98985733	1
666a0fbee8f2	1
ba1e010b03db	1
902f44545b62	1
adbe7822edb5	1
b0a1a219274f	1
061b395708f4	1
564de12bbca5	1
97aced618422	1
906bec2c60f5	1
dd41c0ff3461	1
9b6d10d82b4c	1
f7830d40dafe	1
82e1a5fd9563	1
7782f676dfc1	1
2ae3c69eb4e1	1
a8839965bd05	1
11baf5fbb1e2	1
cdf25be820f6	1
5b54e69e3bc7	1
279dfed5a2ad	1
0cf77d20a526	1
b3eabc2f6598	1
8324350eb05d	1
e0380111e0f9	1
1f2a1fddec2f	1
0c056032ca9c	1
1b536830ba16	1
61b7f4d9760c	1
fa0cd5d36180	1
3cc4d9f48122	1
6a1dcf927e2d	1
0d53e38a047f	1
82fa33cb5666	1
f02fd5495319	1
cbdede7ff6e7	1
064f35afe271	1
e5e333aff375	1
ca56e83e6076	1
f64b13beed21	1
cebaa97ed9d2	1
14e5ee477f7c	1
ba26235b960f	1
a95dbf56e379	1
2f1a7f43fd67	1
9a982bbd88f6	1
aed6f79cccbf	1
656bc1eb0284	1
30ef5753eb17	1
3a373a2a0ee1	1
8f3a63b9fed1	1
6ade2eefda7a	1
daebe7dc1479	1
2c0ea03aecdd	1
b291f259840d	1
953207f868c2	1
9370ed44aba5	1
1709f6f3d654	1
25c3152f204d	1
113a37d39efb	1
dcf2b00587b8	1
637a4db6753e	1
17fc0a63a87e	1
ab8d3b2c7655	1
792fbb7a7e39	1
c54da38520dc	1
28ccccebbb5e	1
7c0f6294fc1b	1
04314307b1c7	1
05283682325c	1
d2b91372fb43	1
878d31c3b905	1
c31d97b9f123	1
43e84a3d0866	1
62e617073ac4	1
f455b595486f	1
30c87f853fd4	1
de8ee5e13e6f	1
543c2aff9ea8	1
d9e21f69659b	1
b4a36820a4ad	1
d787ee6c43a2	1
438a326e724b	1
239c62e963ad	1
7e67e96dea32	1
b34205c76726	1
b34a8addba68	1
3dc46c8ed535	1
09fb1db1fe5c	1
12ea478dc9da	1
866f789f37dd	1
8739ca050689	1
3d33d59a61a2	1
2191a45e107e	1
1f01263304b5	1
42edbf9914df	1
a92f9cdace8c	1
374ce1748b75	1
3acec66adca8	1
bf08e9b57518	1
82bb70baaeb4	1
41b39b834b7a	1
30fecfffd33e	1
842ea8348e2f	1
decd18d80315	1
ea9f20dde42d	1
e3a0cb7a3a26	1
7b171cc015e8	1
23338cfa3359	1
61b0d0585a46	1
30ee871a2ccc	1
45f0a4599f5b	1
a20d0836d761	1
f1aa5c5bbce1	1
7cad0af09281	1
a7774626f927	1
bd765b6c2d2d	1
ace2a948d9cd	1
160244bce5de	1
2cfe3028ba6a	1
d48318ec4da0	1
e1965029b98f	1
f22f8d401050	1
aa2ba4bb382a	1
24b1d014bfbc	1
5deb29ec1404	1
aded299082be	1
c5be64c4cacd	1
f4d9e1e0c951	1
f4838d8c43d1	1
5d4b73d31165	1
824927ebb45e	1
8fa472a9af97	1
11d9b35b7f76	1
7b3cebe74efc	1
ab123b08c7d1	1
b44179964dea	1
78b3164b3071	1
402e3f925545	1
0e64de7315a4	1
3853d4c15d1c	1
45a732d55118	1
af88646961e0	1
287084f87955	1
1d69d9fd1f5e	1
a5160b967ba6	1
4c85a842afb5	1
829b0b8b3835	1
9cbcef8a9931	1
531c09ce2d99	1
8aaba311c11f	1
cdb993d3dd5b	1
f65c60374aa2	1
3198da909ae5	1
249cdba16212	1
fe2c04d883b3	1
fdf6ed7c729c	1
134357718df4	1
71f002e4c06b	1
b7d448f60cfb	1
d925924ac86d	1
7fb1a4420493	1
b46314f3e072	1
e4e111a71ac1	1
39e5e74124a6	1
1364f7d06a83	1
638b38f69666	1
87723e407b1c	1
a02ca9727eff	1
f812d5fec524	1
5c52613b51c6	1
e67d9b4eae80	1
7d32abb2c061	1
1da41f11bab8	1
9a25284e613f	1
c5c77a75b428	1
4e5751be0d3e	1
97690f334d42	1
b28044cef2ac	1
4eb5d7ac4531	1
227294ae5951	1
e37c7f594c95	1
bce38baf5d89	1
43e795febec0	1
f609b3465faa	1
3f274e18c341	1
71915f64196b	1
15096ae60a23	1
c2a08f2f1d6f	1
f3d44e87919e	1
5dd252bf37c4	1
6e4b3b3baf84	1
cc0107f7b866	1
6d83e4a5c37e	1
b6749e251767	1
1c6ee8c4bd7d	1
84dbb4efe245	1
f24529e41cab	1
1200add61382	1
b816729474cd	1
d9a86cc05287	1
95de55a146d7	1
